<svg width="64" height="64" viewBox="0 0 64 64" fill="none" xmlns="http://www.w3.org/2000/svg">
<rect width="64" height="64" fill="white"/>
<path d="M55.2202 55.8799H9.77978C9.00222 55.8784 8.25703 55.5677 7.70775 55.016C7.15847 54.4643 6.84997 53.7166 6.84998 52.9371V15.4685C6.84998 14.6895 7.15865 13.9425 7.70809 13.3916C8.25754 12.8408 9.00274 12.5314 9.77978 12.5314H55.2202C55.9972 12.5314 56.7424 12.8408 57.2919 13.3916C57.8413 13.9425 58.15 14.6895 58.15 15.4685V52.9371C58.15 53.7166 57.8415 54.4643 57.2922 55.016C56.7429 55.5677 55.9977 55.8784 55.2202 55.8799V55.8799Z" stroke="#EB898B" stroke-width="2" stroke-linecap="round" stroke-linejoin="round"/>
<path d="M58.15 34.5715V52.9372C58.15 53.7168 57.8415 54.4644 57.2922 55.0161C56.7429 55.5679 55.9977 55.8786 55.2202 55.8801H34.7002C34.7002 55.8801 46.4251 52.2058 58.15 34.5715Z" stroke="#EB898B" stroke-width="2" stroke-linecap="round" stroke-linejoin="round"/>
<path d="M58.15 25.7542H6.84998V15.4685C6.84998 14.6895 7.15865 13.9425 7.70809 13.3916C8.25754 12.8408 9.00274 12.5314 9.77978 12.5314H55.2202C55.9972 12.5314 56.7424 12.8408 57.2919 13.3916C57.8413 13.9425 58.15 14.6895 58.15 15.4685V25.7542Z" stroke="#EB898B" stroke-width="2" stroke-linecap="round" stroke-linejoin="round"/>
<path d="M17.8452 16.9372C16.9744 16.9383 16.1229 16.6804 15.3984 16.1961C14.6739 15.7118 14.109 15.0229 13.7752 14.2166C13.4414 13.4103 13.3538 12.5228 13.5234 11.6665C13.693 10.8103 14.1122 10.0237 14.728 9.4064C15.3437 8.7891 16.1283 8.36884 16.9825 8.19881C17.8366 8.02877 18.7218 8.11662 19.5261 8.45121C20.3304 8.78581 21.0176 9.35212 21.5007 10.0785C21.9838 10.8048 22.2411 11.6585 22.2399 12.5315" stroke="#EB898B" stroke-width="2" stroke-linecap="round" stroke-linejoin="round"/>
<path d="M33.2353 16.9372C32.3645 16.9383 31.5129 16.6804 30.7884 16.1961C30.0639 15.7118 29.499 15.0229 29.1652 14.2166C28.8315 13.4103 28.7438 12.5228 28.9134 11.6665C29.083 10.8103 29.5023 10.0237 30.118 9.4064C30.7338 8.7891 31.5184 8.36884 32.3725 8.19881C33.2266 8.02877 34.1119 8.11662 34.9162 8.45121C35.7205 8.78581 36.4076 9.35212 36.8907 10.0785C37.3738 10.8048 37.6311 11.6585 37.63 12.5315" stroke="#EB898B" stroke-width="2" stroke-linecap="round" stroke-linejoin="round"/>
<path d="M48.6253 16.9372C47.7545 16.9383 46.9029 16.6804 46.1784 16.1961C45.4539 15.7118 44.889 15.0229 44.5552 14.2166C44.2215 13.4103 44.1338 12.5228 44.3035 11.6665C44.4731 10.8103 44.8923 10.0237 45.508 9.4064C46.1238 8.7891 46.9084 8.36884 47.7625 8.19881C48.6166 8.02877 49.5019 8.11662 50.3062 8.45121C51.1105 8.78581 51.7977 9.35212 52.2808 10.0785C52.7638 10.8048 53.0211 11.6585 53.02 12.5315" stroke="#EB898B" stroke-width="2" stroke-linecap="round" stroke-linejoin="round"/>
<path d="M6.84998 33.103H58.15" stroke="#EB898B" stroke-width="2" stroke-linecap="round" stroke-linejoin="round"/>
<path d="M6.84998 40.4514H37.5103" stroke="#EB898B" stroke-width="2" stroke-linecap="round" stroke-linejoin="round"/>
<path d="M6.84998 47.7943H37.5103" stroke="#EB898B" stroke-width="2" stroke-linecap="round" stroke-linejoin="round"/>
<path d="M17.11 25.7543V55.88" stroke="#EB898B" stroke-width="2" stroke-linecap="round" stroke-linejoin="round"/>
<path d="M27.3699 25.7543V55.88" stroke="#EB898B" stroke-width="2" stroke-linecap="round" stroke-linejoin="round"/>
<path d="M37.63 25.7543V35.7258" stroke="#EB898B" stroke-width="2" stroke-linecap="round" stroke-linejoin="round"/>
<path d="M47.89 25.7543V37.0686" stroke="#EB898B" stroke-width="2" stroke-linecap="round" stroke-linejoin="round"/>
<path d="M17.11 33.103H6.84998V40.4515H17.11V33.103Z" stroke="#EB898B" stroke-width="2" stroke-linecap="round" stroke-linejoin="round"/>
<path d="M27.37 47.7943H17.11V55.8743H27.37V47.7943Z" stroke="#EB898B" stroke-width="2" stroke-linecap="round" stroke-linejoin="round"/>
<path d="M37.6299 25.7543H27.3699V33.1029H37.6299V25.7543Z" stroke="#EB898B" stroke-width="2" stroke-linecap="round" stroke-linejoin="round"/>
<path d="M58.15 34.5715C46.4251 52.2058 34.7002 55.8801 34.7002 55.8801C34.7002 55.8801 40.1779 47.6172 36.5527 36.423C36.5158 36.3191 36.5079 36.207 36.5299 36.099C36.5519 35.9909 36.6029 35.8909 36.6774 35.8098C36.7518 35.7286 36.847 35.6694 36.9526 35.6385C37.0582 35.6076 37.1703 35.6062 37.2766 35.6344C40.6624 36.5715 50.8768 38.8572 58.15 34.5715Z" stroke="#EB898B" stroke-width="2" stroke-linecap="round" stroke-linejoin="round"/>
<path d="M25.1698 21.3487H39.8302" stroke="#EB898B" stroke-width="2" stroke-linecap="round" stroke-linejoin="round"/>
<path d="M47.89 21.3487H53.7553" stroke="#EB898B" stroke-width="2" stroke-linecap="round" stroke-linejoin="round"/>
<path d="M17.11 21.3487H11.2447" stroke="#EB898B" stroke-width="2" stroke-linecap="round" stroke-linejoin="round"/>
</svg>
