<svg width="64" height="64" viewBox="0 0 64 64" fill="none" xmlns="http://www.w3.org/2000/svg">
<rect width="64" height="64" fill="white"/>
<path d="M16.594 51.1868V45.8493" stroke="#EB898B" stroke-width="2" stroke-linecap="round" stroke-linejoin="round"/>
<path d="M15.516 18.617C15.4844 19.9689 15.7259 21.3135 16.2265 22.5716C16.7271 23.8297 17.4766 24.9761 18.4309 25.9433C19.3853 26.9105 20.5252 27.6791 21.7838 28.2038C23.0424 28.7285 24.3942 28.9988 25.7597 28.9988C27.1253 28.9988 28.4771 28.7285 29.7357 28.2038C30.9942 27.6791 32.1342 26.9105 33.0886 25.9433C34.0429 24.9761 34.7924 23.8297 35.293 22.5716C35.7936 21.3135 36.0351 19.9689 36.0035 18.617V15.4145C36.0351 14.0626 35.7936 12.7181 35.293 11.46C34.7924 10.2018 34.0429 9.05548 33.0886 8.08827C32.1342 7.12106 30.9942 6.35251 29.7357 5.8278C28.4771 5.30308 27.1253 5.03278 25.7597 5.03278C24.3942 5.03278 23.0424 5.30308 21.7838 5.8278C20.5252 6.35251 19.3853 7.12106 18.4309 8.08827C17.4766 9.05548 16.7271 10.2018 16.2265 11.46C15.7259 12.7181 15.4844 14.0626 15.516 15.4145V18.617Z" stroke="#EB898B" stroke-width="2" stroke-linecap="round" stroke-linejoin="round"/>
<path d="M34.3755 33.464C31.8231 31.7816 28.8231 30.8886 25.757 30.8988C21.6099 30.8988 17.6327 32.5301 14.7003 35.434C11.7679 38.3378 10.1205 42.2763 10.1205 46.383V51.1867H27.33" stroke="#EB898B" stroke-width="2" stroke-linecap="round" stroke-linejoin="round"/>
<path d="M41.6685 41.0454C45.7825 31.7865 55.094 36.8244 54.8685 44.7816C54.5605 55.9904 41.6685 59.7321 41.6685 59.7321C41.6685 59.7321 28.7655 55.9904 28.4685 44.7816C28.2375 36.8244 37.549 31.7919 41.6685 41.0454Z" stroke="#EB898B" stroke-width="2" stroke-linecap="round" stroke-linejoin="round"/>
</svg>
