{
  "db": "mongodb://localhost/butterfly",
  "pagination_limit": 25,
  "team_id": "3cf1c649-3939-40be-9e22-1d3026c0fcb8",
  "team_secret": "9fbbe3ba-f789-4a3d-8136-fea70929dd47",
  "jwtPrivateKey": "yf2g4gfwm4unfyms4u347d9",
  "aes_key": "yf2!g4_gf.w/m4\\un^4f.@ymCCs/4u?7d(9)&",
  "currency_fetch_cron": "0 0 * * *",
  "currency_base": "EUR",
  "callback": "https://reservation.butterflyballoons.com/api/buy/charge",
  "mailgun": {
    "apiKey": "9bd94319f4aa18c8afd9f5afb2910070-9dfbeecd-0c3ccd40",
    "domain": "mg.butterflyballoons.com",
    "host": "api.eu.mailgun.net"
  }
}
